{
  "guidance": [
    {
      "targets": [
        {
          "destinationPath": "//longtitle/aknp",
          "position": "AFTER-WRAPPER"
        }
      ],
      "content": "<guidance id=\"guidance-_coverpage__longtitle__p\" class=\"guidance-green-block\"><span id=\"_coverpage__longtitle__p-guidance\">[DAP info] <a href=\"https://webgate.ec.europa.eu/fpfis/wikis/display/dap/Title\" target=\"_blank\">Title</a></span></guidance>"
    }
  ],
  "alternatives": [
  ],
  "structure": [
    {
      "name": "structure_06"
    }
  ]
}