{
  "showGuidance": false,
  "guidance": [
    {
      "targets": [
        {
          "destinationPath": "//preface",
          "position": "AFTER"
        }
      ],
      "content": "<guidance id=\"guidance\" class=\"guidance-green-block\"><span id=\"preface-guidance\">[The standard guidance of an Explanatory Memorandum should be as follows. In principle it should not exceed 15 pages (in particularly complex cases a longer text may be justified). The language should be clear and simple, ensuring reader-friendliness for non-experts. All of the following elements are mandatory unless otherwise stated].</span></guidance>"
    },
    {
      "targets": [
        {
          "destinationPath": "//tblock[1]/tblock[1]",
          "position": "AFTER"
        }
      ],
      "content": "<guidance id=\"guidance-1-1\" class=\"guidance-green-block\"><span id=\"reasons-and-objective-guidance\">[Describe the reasons behind the proposal and the problem(s) it is expected to tackle. State if this is an initiative within the Regulatory Fitness Programme (REFIT). State any relevant institutional background of the proposal.]</span></guidance>"
    },
    {
      "targets": [
        {
          "destinationPath": "//tblock[1]/tblock[2]",
          "position": "AFTER"
        }
      ],
      "content": "<guidance id=\"guidance-1-2\" class=\"guidance-green-block\"><span id=\"Consistency-with-existing-policy \">[Mention relevant existing policy provisions in the policy area and clarify how the proposal relates to them (e.g. differences, complementarity).]</span></guidance>"
    },
    {
      "targets": [
        {
          "destinationPath": "//tblock[1]/tblock[3]",
          "position": "AFTER"
        }
      ],
      "content": "<guidance id=\"guidance-1-3\" class=\"guidance-green-block\"><span id=\"Consistency-with-other-Union-policies\">[Mention links with other key Union policies.]</span></guidance>"
    },
    {
      "targets": [
        {
          "destinationPath": "//tblock[2]/tblock[1]",
          "position": "AFTER"
        }
      ],
      "content": "<guidance id=\"guidance-2-1\" class=\"guidance-green-block\"><span id=\"Legal-basis-guidance\">[Explain the choice of legal basis of the proposal. Where several feasible options seem to exist, justify the choice on the basis of objective criteria.]</span></guidance>"
    },
    {
      "targets": [
        {
          "destinationPath": "//tblock[2]/tblock[2]",
          "position": "AFTER"
        }
      ],
      "content": "<guidance id=\"guidance-2-2\" class=\"guidance-green-block\"><span id=\"subsidiarity-guidance\">[Explain the Union dimension of the problem. Describe why the objectives cannot be adequately achieved by the Member States (necessity test). Explain why action at Union level would be more effective than action at national level and outline the added value of action at Union level (effectiveness test).]</span></guidance>"
    },
    {
      "targets": [
        {
          "destinationPath": "//tblock[2]/tblock[3]",
          "position": "AFTER"
        }
      ],
      "content": "<guidance id=\"guidance-2-3\" class=\"guidance-green-block\"><span id=\"Proportionality-guidance\">[Explain the policy choices of the proposal and why they are considered proportionate (i.e. not going beyond what it necessary to achieve the objectives). Explain why it is considered the most suitable measure for achieving the objective. Where an Impact Assessment accompanies the proposal, reference should be made to the appropriate parts which discuss proportionality.]</span></guidance>"
    },
    {
      "targets": [
        {
          "destinationPath": "//tblock[2]/tblock[4]",
          "position": "AFTER"
        }
      ],
      "content": "<guidance id=\"guidance-2-4\" class=\"guidance-green-block\"><span id=\"Choice-of-instrument-guidance\">[Where appropriate, explain the choice of the instrument.]</span></guidance>"
    },
    {
      "targets": [
        {
          "destinationPath": "//tblock[3]/tblock[1]",
          "position": "AFTER"
        }
      ],
      "content": "<guidance id=\"guidance-3-1\" class=\"guidance-green-block\"><span id=\"Ex-post-evaluations-guidance\">[If applicable, summarise results of any ex-post evaluations/fitness checks of existing legislation. Clarify the link to the problems identified in the proposal.]</span></guidance>"
    },
    {
      "targets": [
        {
          "destinationPath": "//tblock[3]/tblock[2]",
          "position": "AFTER"
        }
      ],
      "content": "<guidance id=\"guidance-3-2\" class=\"guidance-green-block\"><span id=\"Stakeholder-consultations-guidance\">[Describe the consultations carried out, summarise the input received, as well as how this was taken into account in the proposal. Where appropriate, explain where the Commission's views diverge and why.]</span></guidance>"
    },
    {
      "targets": [
        {
          "destinationPath": "//tblock[3]/tblock[3]",
          "position": "AFTER"
        }
      ],
      "content": "<guidance id=\"guidance-3-3\" class=\"guidance-green-block\"><span id=\"Collection-and-use-of-expertise-guidance\">[Where relevant, a short summary on the external expertise on which the Commission has relied (approach, range, advice received and used, publicly available information).]</span></guidance>"
    },
    {
      "targets": [
        {
          "destinationPath": "//tblock[3]/tblock[4]",
          "position": "AFTER"
        }
      ],
      "content": "<guidance id=\"guidance-3-4\" class=\"guidance-green-block\"><span id=\"Impact-assessment-guidance\">[For proposals not supported by an Impact Assessment, please explain the reasons why no Impact Assessment was carried out with reference to the accompanying roadmap and the Guidelines on Better Regulation.]<br>[For proposals supported by an Impact Assessment, please provide links to the summary sheet and to the positive opinion of the Regulatory Scrutiny Board. In the absence of a positive opinion from the Board, please provide justification for proceeding with the initiative.]<br>[Explain which policy alternatives were examined, compare them and explain why the final proposal was considered to be the best policy choice.]<br>[Describe the main economic, social and environmental impacts of the preferred option, who would be affected and how. Include quantitative estimates of benefits and costs wherever possible and, if not available, explain why.]<br>[If the final policy proposal deviates from the options assessed in the impact assessment, clarify the differences in approach and their likely impact.]</span></guidance>"
    },
    {
      "targets": [
        {
          "destinationPath": "//tblock[3]/tblock[5]",
          "position": "AFTER"
        }
      ],
      "content": "<guidance id=\"guidance-3-5\" class=\"guidance-green-block\"><span id=\"Regulatory-fitness-and-simplification-guidance\">[For proposals linked to REFIT and aimed at reducing regulatory burdens, provide, wherever possible, quantified estimates of the intended burden reduction.<br>            [Outline whether the proposal exempts micro-enterprises and the reasons why if it does not do so.]<br>[Explain how the proposal minimizes compliance costs for SMEs (via lighter regimes, mitigating measures, etc.) and other stakeholders, as well as any positive or negative impact on sectoral EU competitiveness or international trade.]<br>[Explain how the proposal is consistent with the \"Digital Check\" and is internet ready and appropriate for both the physical and digital environment (please see Better Regulation guideline and tool on ICT impacts in the Better Regulation Toolbox for more information).]</span></guidance>"
    },
    {
      "targets": [
        {
          "destinationPath": "//tblock[3]/tblock[6]",
          "position": "AFTER"
        }
      ],
      "content": "<guidance id=\"guidance-3-6\" class=\"guidance-green-block\"><span id=\"Fundamental-rights-guidance\">[If the proposal has consequences for the protection of fundamental rights, explain how fundamental rights obligations have been met.]</span></guidance>"
    },
    {
      "targets": [
        {
          "destinationPath": "//tblock[4]",
          "position": "AFTER"
        }
      ],
      "content": "<guidance id=\"guidance-4-0\" class=\"guidance-green-block\"><span id=\"BUDGETARY-IMPLICATIONS-guidance\">[Outline the budgetary implications of the initiative (if any) and, where appropriate, refer to the \"financial statement\" showing the budgetary implications and the human and administrative resources required.]</span></guidance>"
    },
    {
      "targets": [
        {
          "destinationPath": "//tblock[5]/tblock[1]",
          "position": "AFTER"
        }
      ],
      "content": "<guidance id=\"guidance-5-1\" class=\"guidance-green-block\"><span id=\"Implementation-plans-and-monitoring-guidance\">[Refer to the implementation planning associated with the measure, including the monitoring, evaluation and reporting framework set up to assist with its implementation and application and to report on its performance.]</span></guidance>"
    },
    {
      "targets": [
        {
          "destinationPath": "//tblock[5]/tblock[2]",
          "position": "AFTER"
        }
      ],
      "content": "<guidance id=\"guidance-5-2\" class=\"guidance-green-block\"><span id=\"Explanatory-documents-guidance\">[Explain if the proposal requires Explanatory Documents on the transposition and why.]</span></guidance>"
    }
  ],
  "alternatives": [
  ],
  "structure": [
    {
      "name": "structure_03"
    }
  ]
}